…
Below is a table summarizing the number of items ordered from aisle. In
total, there are 134 aisles, with fresh vegetables and fresh fruits
holding the most items ordered by far.

``` r
instacart %>% 
  count(aisle) %>% 
  arrange(desc(n))
```

    ## # A tibble: 134 × 2
    ##    aisle                              n
    ##    <chr>                          <int>
    ##  1 fresh vegetables              150609
    ##  2 fresh fruits                  150473
    ##  3 packaged vegetables fruits     78493
    ##  4 yogurt                         55240
    ##  5 packaged cheese                41699
    ##  6 water seltzer sparkling water  36617
    ##  7 milk                           32644
    ##  8 chips pretzels                 31269
    ##  9 soy lactosefree                26240
    ## 10 bread                          23635
    ## # … with 124 more rows
…
This dataset has **7** variables, including **week, day_id, day,
day_type, time_min, accel_minute, accel_day**, and total **50400**
observations.

``` r
accel_data_day =
  accel_data %>% 
  select(week, day_id, day, day_type, accel_day) 
print(accel_data_day, n = 20)
```

    ## # A tibble: 35 × 5
    ##     week day_id day       day_type accel_day
    ##    <dbl>  <dbl> <fct>     <fct>        <dbl>
    ##  1     1      1 Friday    weekday    480543.
    ##  2     1      2 Monday    weekday     78828.
    ##  3     1      3 Saturday  weekend    376254 
    ##  4     1      4 Sunday    weekend    631105 
    ##  5     1      5 Thursday  weekday    355924.
    ##  6     1      6 Tuesday   weekday    307094.
    ##  7     1      7 Wednesday weekday    340115.
    ##  8     2      8 Friday    weekday    568839 
    ##  9     2      9 Monday    weekday    295431 
    ## 10     2     10 Saturday  weekend    607175 
    ## 11     2     11 Sunday    weekend    422018 
    ## 12     2     12 Thursday  weekday    474048 
    ## 13     2     13 Tuesday   weekday    423245 
    ## 14     2     14 Wednesday weekday    440962 
    ## 15     3     15 Friday    weekday    467420 
    ## 16     3     16 Monday    weekday    685910 
    ## 17     3     17 Saturday  weekend    382928 
    ## 18     3     18 Sunday    weekend    467052 
    ## 19     3     19 Thursday  weekday    371230 
    ## 20     3     20 Tuesday   weekday    381507 
    ## # … with 15 more rows
…
From the graph we can tell that the accelerometer data was generally low
in the first 5 hours of the day, while having peaks during 5\~10 hours
and 20\~25 hours. The weekday or weekend pattern of accelerometer data
was not very clear but it can be seen that the peak in 20\~25 hours was
mostly caused by accelerometer data from weekdays, and the Sunday data
showed unusual peak during 10\~12.5 hours of the day.

## Problem 3

``` r
ny_noaa %>% 
  count(id, name = "n_obs_id")
```

    ## # A tibble: 747 × 2
    ##    id          n_obs_id
    ##    <chr>          <int>
    ##  1 US1NYAB0001     1157
    ##  2 US1NYAB0006      852
    ##  3 US1NYAB0010      822
    ##  4 US1NYAB0016      214
    ##  5 US1NYAB0017      459
    ##  6 US1NYAB0021      365
    ##  7 US1NYAB0022      273
    ##  8 US1NYAB0023      365
    ##  9 US1NYAB0025      215
    ## 10 US1NYAL0002      549
    ## # … with 737 more rows

``` r
ny_noaa %>% 
  count(date, name = "n_obs_date")
```

    ## # A tibble: 10,957 × 2
    ##    date       n_obs_date
    ##    <date>          <int>
    ##  1 1981-01-01        236
    ##  2 1981-01-02        236
    ##  3 1981-01-03        236
    ##  4 1981-01-04        236
    ##  5 1981-01-05        236
    ##  6 1981-01-06        236
    ##  7 1981-01-07        236
    ##  8 1981-01-08        236
    ##  9 1981-01-09        236
    ## 10 1981-01-10        236
    ## # … with 10,947 more rows
…
  ny_noaa %>% 
  separate(date, into = c("year", "month", "day"), sep = "-") %>% 
  mutate(
    tmax = as.numeric(tmax)/10,
    tmin = as.numeric(tmin)/10,
    month = as.integer(month),
    month = month.abb[month],
    year = as.numeric(year))
snow_data = 
  noaa1 %>% 
  count(snow, name = "n_obs", sort = TRUE)
snow_data
```

    ## # A tibble: 282 × 2
    ##     snow   n_obs
    ##    <int>   <int>
    ##  1     0 2008508
    ##  2    NA  381221
    ##  3    25   31022
    ##  4    13   23095
    ##  5    51   18274
    ##  6    76   10173
    ##  7     8    9962
    ##  8     5    9748
    ##  9    38    9197
    ## 10     3    8790
    ## # … with 272 more rows
…
